fffffdea 0 0 0 0 0 0
ffffe9bf 0 0 0 0 1 0
00002522 0 0 0 0 2 0
000061bc 0 0 0 0 3 0
ffffe038 0 0 0 0 4 0
00002a5d 0 0 0 0 5 0
ffffe47f 0 0 0 0 6 0
00001507 0 0 0 0 7 0
fffff8ec 0 0 0 0 8 0
fffff5eb 0 0 0 0 9 0
00002096 0 0 0 0 10 0
ffffc4bc 0 0 0 0 11 0
0000593f 0 0 0 0 12 0
ffff8734 0 0 0 0 13 0
000097a7 0 0 0 0 14 0
ffff4cd6 0 0 0 0 15 0
0000c838 0 0 0 0 16 0
ffff2c5d 0 0 0 0 17 0
0000d217 0 0 0 0 18 0
ffff3f61 0 0 0 0 19 0
00009c96 0 0 0 0 20 0
ffff9beb 0 0 0 0 21 0
0000161a 0 0 0 0 22 0
00004d26 0 0 0 0 23 0
ffff3bd5 0 0 0 0 24 0
00014c34 0 0 0 0 25 0
fffe1f44 0 0 0 0 26 0
00027bc9 0 0 0 0 27 0
fffcea25 0 0 0 0 28 0
0003a634 0 0 0 0 29 0
fffbdd5c 0 0 0 0 30 0
00048005 0 0 0 0 31 0
fffb4dbf 0 0 0 0 32 0
0004ac20 0 0 0 0 33 0
fffba06a 0 0 0 0 34 0
0003bcdc 0 0 0 0 35 0
fffd4e91 0 0 0 0 36 0
0001259b 0 0 0 0 37 0
000108b9 0 0 0 0 38 0
fffbeec2 0 0 0 0 39 0
00085bc9 0 0 0 0 40 0
fff13651 0 0 0 0 41 0
0019b390 0 0 0 0 42 0
ffcdf636 0 0 0 0 43 0
00b2c280 0 0 0 0 44 0
009049f5 0 0 0 0 45 0
ffcc61ac 0 0 0 0 46 0
001df0df 0 0 0 0 47 0
ffec76f7 0 0 0 0 48 0
000d134a 0 0 0 0 49 0
fff778b0 0 0 0 0 50 0
00051e40 0 0 0 0 51 0
fffd8325 0 0 0 0 52 0
0000735b 0 0 0 0 53 0
00011a65 0 0 0 0 54 0
fffdc0d1 0 0 0 0 55 0
0003095f 0 0 0 0 56 0
fffc7abe 0 0 0 0 57 0
0003be17 0 0 0 0 58 0
fffc410c 0 0 0 0 59 0
00039289 0 0 0 0 60 0
fffcbcc3 0 0 0 0 61 0
0002db2c 0 0 0 0 62 0
fffd9c68 0 0 0 0 63 0
0001e502 0 0 0 0 64 0
fffe992a 0 0 0 0 65 0
0000ef5a 0 0 0 0 66 0
ffff7cbc 0 0 0 0 67 0
00002616 0 0 0 0 68 0
000025fa 0 0 0 0 69 0
ffff9ff7 0 0 0 0 70 0
0000884c 0 0 0 0 71 0
ffff6008 0 0 0 0 72 0
0000a8da 0 0 0 0 73 0
ffff5a90 0 0 0 0 74 0
0000985e 0 0 0 0 75 0
ffff7b79 0 0 0 0 76 0
00006c97 0 0 0 0 77 0
ffffacf0 0 0 0 0 78 0
00003a1c 0 0 0 0 79 0
ffffdce5 0 0 0 0 80 0
00000fef 0 0 0 0 81 0
00000136 0 0 0 0 82 0
fffff524 0 0 0 0 83 0
00001e7f 0 0 0 0 84 0
ffffe9bd 0 0 0 0 85 0
000068c2 0 0 0 0 86 0
000015cc 0 0 0 0 87 0
ffffebc1 0 0 0 0 88 0
00000000 -1 -1 -1 -1 -1 -1
00000000 -1 -1 -1 -1 -1 -1
00000000 -1 -1 -1 -1 -1 -1
00000000 -1 -1 -1 -1 -1 -1
00000000 -1 -1 -1 -1 -1 -1
00000000 -1 -1 -1 -1 -1 -1
00000000 -1 -1 -1 -1 -1 -1
00000000 -1 -1 -1 -1 -1 -1
00000000 -1 -1 -1 -1 -1 -1
00000000 -1 -1 -1 -1 -1 -1
00000000 -1 -1 -1 -1 -1 -1
00000000 -1 -1 -1 -1 -1 -1
00000000 -1 -1 -1 -1 -1 -1
00000000 -1 -1 -1 -1 -1 -1
00000000 -1 -1 -1 -1 -1 -1
00000000 -1 -1 -1 -1 -1 -1
00000000 -1 -1 -1 -1 -1 -1
00000000 -1 -1 -1 -1 -1 -1
00000000 -1 -1 -1 -1 -1 -1
00000000 -1 -1 -1 -1 -1 -1
00000000 -1 -1 -1 -1 -1 -1
00000000 -1 -1 -1 -1 -1 -1
00000000 -1 -1 -1 -1 -1 -1
00000000 -1 -1 -1 -1 -1 -1
00000000 -1 -1 -1 -1 -1 -1
00000000 -1 -1 -1 -1 -1 -1
00000000 -1 -1 -1 -1 -1 -1
00000000 -1 -1 -1 -1 -1 -1
00000000 -1 -1 -1 -1 -1 -1
00000000 -1 -1 -1 -1 -1 -1
00000000 -1 -1 -1 -1 -1 -1
00000000 -1 -1 -1 -1 -1 -1
00000000 -1 -1 -1 -1 -1 -1
00000000 -1 -1 -1 -1 -1 -1
00000000 -1 -1 -1 -1 -1 -1
00000000 -1 -1 -1 -1 -1 -1
00000000 -1 -1 -1 -1 -1 -1
00000000 -1 -1 -1 -1 -1 -1
00000000 -1 -1 -1 -1 -1 -1
fffffce0 0 0 1 0 0 0
ffffe918 0 0 1 0 1 0
0000353e 0 0 1 0 2 0
000055c9 0 0 1 0 3 0
ffffdc59 0 0 1 0 4 0
000031cc 0 0 1 0 5 0
ffffd747 0 0 1 0 6 0
000026df 0 0 1 0 7 0
ffffe20a 0 0 1 0 8 0
00001141 0 0 1 0 9 0
000001c4 0 0 1 0 10 0
ffffe550 0 0 1 0 11 0
0000394b 0 0 1 0 12 0
ffffa37a 0 0 1 0 13 0
000082a4 0 0 1 0 14 0
ffff569c 0 0 1 0 15 0
0000cdcf 0 0 1 0 16 0
ffff1364 0 0 1 0 17 0
00010207 0 0 1 0 18 0
fffef5a9 0 0 1 0 19 0
000101c6 0 0 1 0 20 0
ffff1b0f 0 0 1 0 21 0
0000b10a 0 0 1 0 22 0
ffff9bcf 0 0 1 0 23 0
fffffda8 0 0 1 0 24 0
00008230 0 0 1 0 25 0
fffee6c5 0 0 1 0 26 0
0001c3c7 0 0 1 0 27 0
fffd839f 0 0 1 0 28 0
00033c08 0 0 1 0 29 0
fffc0622 0 0 1 0 30 0
0004ab8c 0 0 1 0 31 0
fffababd 0 0 1 0 32 0
0005b988 0 0 1 0 33 0
fffa0681 0 0 1 0 34 0
0005f435 0 0 1 0 35 0
fffa6a40 0 0 1 0 36 0
0004c522 0 0 1 0 37 0
fffca06a 0 0 1 0 38 0
00012e40 0 0 1 0 39 0
00023301 0 0 1 0 40 0
fff86319 0 0 1 0 41 0
00115dc4 0 0 1 0 42 0
ffd72f0f 0 0 1 0 43 0
00cf5354 0 0 1 0 44 0
006a9074 0 0 1 0 45 0
ffd16e20 0 0 1 0 46 0
001df630 0 0 1 0 47 0
ffea92b2 0 0 1 0 48 0
000fd356 0 0 1 0 49 0
fff45663 0 0 1 0 50 0
00085c40 0 0 1 0 51 0
fffa5786 0 0 1 0 52 0
00036ce2 0 0 1 0 53 0
fffe68dc 0 0 1 0 54 0
00001bfc 0 0 1 0 55 0
00010ccb 0 0 1 0 56 0
fffe15a9 0 0 1 0 57 0
00028387 0 0 1 0 58 0
fffd2029 0 0 1 0 59 0
00030718 0 0 1 0 60 0
fffcfe76 0 0 1 0 61 0
0002d7d8 0 0 1 0 62 0
fffd6d7c 0 0 1 0 63 0
000239ea 0 0 1 0 64 0
fffe2a1f 0 0 1 0 65 0
00016d97 0 0 1 0 66 0
fffef8f8 0 0 1 0 67 0
0000a738 0 0 1 0 68 0
ffffadf6 0 0 1 0 69 0
00000a1d 0 0 1 0 70 0
00002f12 0 0 1 0 71 0
ffffa6d4 0 0 1 0 72 0
0000749e 0 0 1 0 73 0
ffff7d3c 0 0 1 0 74 0
00008565 0 0 1 0 75 0
ffff8136 0 0 1 0 76 0
0000714c 0 0 1 0 77 0
ffffa0a5 0 0 1 0 78 0
00004b47 0 0 1 0 79 0
ffffc946 0 0 1 0 80 0
00002427 0 0 1 0 81 0
ffffedfd 0 0 1 0 82 0
00000718 0 0 1 0 83 0
00000fc8 0 0 1 0 84 0
fffff824 0 0 1 0 85 0
00006a83 0 0 1 0 86 0
0000081b 0 0 1 0 87 0
ffffeea1 0 0 1 0 88 0
00000000 -1 -1 -1 -1 -1 -1
00000000 -1 -1 -1 -1 -1 -1
00000000 -1 -1 -1 -1 -1 -1
00000000 -1 -1 -1 -1 -1 -1
00000000 -1 -1 -1 -1 -1 -1
00000000 -1 -1 -1 -1 -1 -1
00000000 -1 -1 -1 -1 -1 -1
00000000 -1 -1 -1 -1 -1 -1
00000000 -1 -1 -1 -1 -1 -1
00000000 -1 -1 -1 -1 -1 -1
00000000 -1 -1 -1 -1 -1 -1
00000000 -1 -1 -1 -1 -1 -1
00000000 -1 -1 -1 -1 -1 -1
00000000 -1 -1 -1 -1 -1 -1
00000000 -1 -1 -1 -1 -1 -1
00000000 -1 -1 -1 -1 -1 -1
00000000 -1 -1 -1 -1 -1 -1
00000000 -1 -1 -1 -1 -1 -1
00000000 -1 -1 -1 -1 -1 -1
00000000 -1 -1 -1 -1 -1 -1
00000000 -1 -1 -1 -1 -1 -1
00000000 -1 -1 -1 -1 -1 -1
00000000 -1 -1 -1 -1 -1 -1
00000000 -1 -1 -1 -1 -1 -1
00000000 -1 -1 -1 -1 -1 -1
00000000 -1 -1 -1 -1 -1 -1
00000000 -1 -1 -1 -1 -1 -1
00000000 -1 -1 -1 -1 -1 -1
00000000 -1 -1 -1 -1 -1 -1
00000000 -1 -1 -1 -1 -1 -1
00000000 -1 -1 -1 -1 -1 -1
00000000 -1 -1 -1 -1 -1 -1
00000000 -1 -1 -1 -1 -1 -1
00000000 -1 -1 -1 -1 -1 -1
00000000 -1 -1 -1 -1 -1 -1
00000000 -1 -1 -1 -1 -1 -1
00000000 -1 -1 -1 -1 -1 -1
00000000 -1 -1 -1 -1 -1 -1
00000000 -1 -1 -1 -1 -1 -1
fffffad6 0 0 2 0 0 0
ffffea4d 0 0 2 0 1 0
00004511 0 0 2 0 2 0
000045b2 0 0 2 0 3 0
ffffde50 0 0 2 0 4 0
000033be 0 0 2 0 5 0
ffffcf3d 0 0 2 0 6 0
00003454 0 0 2 0 7 0
ffffce4a 0 0 2 0 8 0
00002b5e 0 0 2 0 9 0
ffffe189 0 0 2 0 10 0
00000aac 0 0 2 0 11 0
00001086 0 0 2 0 12 0
ffffcd20 0 0 2 0 13 0
00005b6b 0 0 2 0 14 0
ffff7767 0 0 2 0 15 0
0000b7fe 0 0 2 0 16 0
ffff195b 0 0 2 0 17 0
000110d6 0 0 2 0 18 0
fffecd72 0 0 2 0 19 0
0001475f 0 0 2 0 20 0
fffeb527 0 0 2 0 21 0
000138b2 0 0 2 0 22 0
fffef2d1 0 0 2 0 23 0
0000c561 0 0 2 0 24 0
ffffa0d6 0 0 2 0 25 0
ffffd9e9 0 0 2 0 26 0
0000c984 0 0 2 0 27 0
fffe7780 0 0 2 0 28 0
00025ecc 0 0 2 0 29 0
fffcb9e5 0 0 2 0 30 0
0004365d 0 0 2 0 31 0
fffada40 0 0 2 0 32 0
0006086f 0 0 2 0 33 0
fff92f0a 0 0 2 0 34 0
00076fc5 0 0 2 0 35 0
fff82d55 0 0 2 0 36 0
0007e37e 0 0 2 0 37 0
fff87b2e 0 0 2 0 38 0
00068a81 0 0 2 0 39 0
fffb5913 0 0 2 0 40 0
00013422 0 0 2 0 41 0
00059a8a 0 0 2 0 42 0
ffe86622 0 0 2 0 43 0
00e3bd6e 0 0 2 0 44 0
0044650e 0 0 2 0 45 0
ffdb9399 0 0 2 0 46 0
001a2716 0 0 2 0 47 0
ffeb9470 0 0 2 0 48 0
00105d66 0 0 2 0 49 0
fff2dfd8 0 0 2 0 50 0
000a5f7e 0 0 2 0 51 0
fff8086b 0 0 2 0 52 0
0005d8d4 0 0 2 0 53 0
fffc0343 0 0 2 0 54 0
000260d7 0 0 2 0 55 0
fffefbf3 0 0 2 0 56 0
ffffe545 0 0 2 0 57 0
0000fd24 0 0 2 0 58 0
fffe59e7 0 0 2 0 59 0
00021988 0 0 2 0 60 0
fffda38d 0 0 2 0 61 0
000274f4 0 0 2 0 62 0
fffd9658 0 0 2 0 63 0
000241ab 0 0 2 0 64 0
fffdfbd0 0 0 2 0 65 0
0001b859 0 0 2 0 66 0
fffe9b6c 0 0 2 0 67 0
00010eb4 0 0 2 0 68 0
ffff4440 0 0 2 0 69 0
00006fb3 0 0 2 0 70 0
ffffd283 0 0 2 0 71 0
fffff6f0 0 0 2 0 72 0
000032fc 0 0 2 0 73 0
ffffafa5 0 0 2 0 74 0
000061dd 0 0 2 0 75 0
ffff9711 0 0 2 0 76 0
0000674b 0 0 2 0 77 0
ffffa103 0 0 2 0 78 0
00005236 0 0 2 0 79 0
ffffbd5c 0 0 2 0 80 0
00003321 0 0 2 0 81 0
ffffddc6 0 0 2 0 82 0
00001824 0 0 2 0 83 0
0000001b 0 0 2 0 84 0
00000a2c 0 0 2 0 85 0
00006721 0 0 2 0 86 0
fffffcae 0 0 2 0 87 0
fffff1e9 0 0 2 0 88 0
00000000 -1 -1 -1 -1 -1 -1
00000000 -1 -1 -1 -1 -1 -1
00000000 -1 -1 -1 -1 -1 -1
00000000 -1 -1 -1 -1 -1 -1
00000000 -1 -1 -1 -1 -1 -1
00000000 -1 -1 -1 -1 -1 -1
00000000 -1 -1 -1 -1 -1 -1
00000000 -1 -1 -1 -1 -1 -1
00000000 -1 -1 -1 -1 -1 -1
00000000 -1 -1 -1 -1 -1 -1
00000000 -1 -1 -1 -1 -1 -1
00000000 -1 -1 -1 -1 -1 -1
00000000 -1 -1 -1 -1 -1 -1
00000000 -1 -1 -1 -1 -1 -1
00000000 -1 -1 -1 -1 -1 -1
00000000 -1 -1 -1 -1 -1 -1
00000000 -1 -1 -1 -1 -1 -1
00000000 -1 -1 -1 -1 -1 -1
00000000 -1 -1 -1 -1 -1 -1
00000000 -1 -1 -1 -1 -1 -1
00000000 -1 -1 -1 -1 -1 -1
00000000 -1 -1 -1 -1 -1 -1
00000000 -1 -1 -1 -1 -1 -1
00000000 -1 -1 -1 -1 -1 -1
00000000 -1 -1 -1 -1 -1 -1
00000000 -1 -1 -1 -1 -1 -1
00000000 -1 -1 -1 -1 -1 -1
00000000 -1 -1 -1 -1 -1 -1
00000000 -1 -1 -1 -1 -1 -1
00000000 -1 -1 -1 -1 -1 -1
00000000 -1 -1 -1 -1 -1 -1
00000000 -1 -1 -1 -1 -1 -1
00000000 -1 -1 -1 -1 -1 -1
00000000 -1 -1 -1 -1 -1 -1
00000000 -1 -1 -1 -1 -1 -1
00000000 -1 -1 -1 -1 -1 -1
00000000 -1 -1 -1 -1 -1 -1
00000000 -1 -1 -1 -1 -1 -1
00000000 -1 -1 -1 -1 -1 -1
fffff840 0 0 3 0 0 0
ffffedca 0 0 3 0 1 0
0000536f 0 0 3 0 2 0
000032ad 0 0 3 0 3 0
ffffe5b1 0 0 3 0 4 0
00002fc9 0 0 3 0 5 0
ffffcd87 0 0 3 0 6 0
00003b7b 0 0 3 0 7 0
ffffc062 0 0 3 0 8 0
000040c2 0 0 3 0 9 0
ffffc41d 0 0 3 0 10 0
00003007 0 0 3 0 11 0
ffffe40a 0 0 3 0 12 0
ffffff12 0 0 3 0 13 0
00002697 0 0 3 0 14 0
ffffab9c 0 0 3 0 15 0
000088c8 0 0 3 0 16 0
ffff3e78 0 0 3 0 17 0
0000fb76 0 0 3 0 18 0
fffecd34 0 0 3 0 19 0
0001630a 0 0 3 0 20 0
fffe78c0 0 0 3 0 21 0
00019a36 0 0 3 0 22 0
fffe6936 0 0 3 0 23 0
00017836 0 0 3 0 24 0
fffec5eb 0 0 3 0 25 0
0000d913 0 0 3 0 26 0
ffffacf4 0 0 3 0 27 0
ffffa75c 0 0 3 0 28 0
00012928 0 0 3 0 29 0
fffde450 0 0 3 0 30 0
00032ba1 0 0 3 0 31 0
fffbad63 0 0 3 0 32 0
00058833 0 0 3 0 33 0
fff93d95 0 0 3 0 34 0
0007f58a 0 0 3 0 35 0
fff6ebdc 0 0 3 0 36 0
000a0ee0 0 0 3 0 37 0
fff52c8d 0 0 3 0 38 0
000b4a01 0 0 3 0 39 0
fff4b200 0 0 3 0 40 0
000a9828 0 0 3 0 41 0
fff7991b 0 0 3 0 42 0
00013717 0 0 3 0 43 0
00ee5ff0 0 0 3 0 44 0
00207d38 0 0 3 0 45 0
ffe8f597 0 0 3 0 46 0
001353ce 0 0 3 0 47 0
ffef298b 0 0 3 0 48 0
000ebe98 0 0 3 0 49 0
fff331c1 0 0 3 0 50 0
000af1bc 0 0 3 0 51 0
fff6daf1 0 0 3 0 52 0
00076acd 0 0 3 0 53 0
fffa37b5 0 0 3 0 54 0
000443bb 0 0 3 0 55 0
fffd1cf9 0 0 3 0 56 0
0001ab10 0 0 3 0 57 0
ffff606d 0 0 3 0 58 0
ffffc27b 0 0 3 0 59 0
0000ebcd 0 0 3 0 60 0
fffe9397 0 0 3 0 61 0
0001c222 0 0 3 0 62 0
fffe0f2f 0 0 3 0 63 0
0001fd68 0 0 3 0 64 0
fffe127c 0 0 3 0 65 0
0001c74e 0 0 3 0 66 0
fffe6f3c 0 0 3 0 67 0
00014fc4 0 0 3 0 68 0
fffef636 0 0 3 0 69 0
0000c39c 0 0 3 0 70 0
ffff7ec6 0 0 3 0 71 0
000045a5 0 0 3 0 72 0
ffffece8 0 0 3 0 73 0
ffffeabe 0 0 3 0 74 0
000032f0 0 0 3 0 75 0
ffffb9a5 0 0 3 0 76 0
00005067 0 0 3 0 77 0
ffffad84 0 0 3 0 78 0
00004e68 0 0 3 0 79 0
ffffba61 0 0 3 0 80 0
00003b28 0 0 3 0 81 0
ffffd287 0 0 3 0 82 0
0000263f 0 0 3 0 83 0
fffff175 0 0 3 0 84 0
00001e44 0 0 3 0 85 0
00005f26 0 0 3 0 86 0
fffff3df 0 0 3 0 87 0
fffff537 0 0 3 0 88 0
00000000 -1 -1 -1 -1 -1 -1
00000000 -1 -1 -1 -1 -1 -1
00000000 -1 -1 -1 -1 -1 -1
00000000 -1 -1 -1 -1 -1 -1
00000000 -1 -1 -1 -1 -1 -1
00000000 -1 -1 -1 -1 -1 -1
00000000 -1 -1 -1 -1 -1 -1
00000000 -1 -1 -1 -1 -1 -1
00000000 -1 -1 -1 -1 -1 -1
00000000 -1 -1 -1 -1 -1 -1
00000000 -1 -1 -1 -1 -1 -1
00000000 -1 -1 -1 -1 -1 -1
00000000 -1 -1 -1 -1 -1 -1
00000000 -1 -1 -1 -1 -1 -1
00000000 -1 -1 -1 -1 -1 -1
00000000 -1 -1 -1 -1 -1 -1
00000000 -1 -1 -1 -1 -1 -1
00000000 -1 -1 -1 -1 -1 -1
00000000 -1 -1 -1 -1 -1 -1
00000000 -1 -1 -1 -1 -1 -1
00000000 -1 -1 -1 -1 -1 -1
00000000 -1 -1 -1 -1 -1 -1
00000000 -1 -1 -1 -1 -1 -1
00000000 -1 -1 -1 -1 -1 -1
00000000 -1 -1 -1 -1 -1 -1
00000000 -1 -1 -1 -1 -1 -1
00000000 -1 -1 -1 -1 -1 -1
00000000 -1 -1 -1 -1 -1 -1
00000000 -1 -1 -1 -1 -1 -1
00000000 -1 -1 -1 -1 -1 -1
00000000 -1 -1 -1 -1 -1 -1
00000000 -1 -1 -1 -1 -1 -1
00000000 -1 -1 -1 -1 -1 -1
00000000 -1 -1 -1 -1 -1 -1
00000000 -1 -1 -1 -1 -1 -1
00000000 -1 -1 -1 -1 -1 -1
00000000 -1 -1 -1 -1 -1 -1
00000000 -1 -1 -1 -1 -1 -1
00000000 -1 -1 -1 -1 -1 -1
fffff537 0 0 4 0 0 0
fffff3df 0 0 4 0 1 0
00005f26 0 0 4 0 2 0
00001e44 0 0 4 0 3 0
fffff175 0 0 4 0 4 0
0000263f 0 0 4 0 5 0
ffffd287 0 0 4 0 6 0
00003b28 0 0 4 0 7 0
ffffba61 0 0 4 0 8 0
00004e68 0 0 4 0 9 0
ffffad84 0 0 4 0 10 0
00005067 0 0 4 0 11 0
ffffb9a5 0 0 4 0 12 0
000032f0 0 0 4 0 13 0
ffffeabe 0 0 4 0 14 0
ffffece8 0 0 4 0 15 0
000045a5 0 0 4 0 16 0
ffff7ec6 0 0 4 0 17 0
0000c39c 0 0 4 0 18 0
fffef636 0 0 4 0 19 0
00014fc4 0 0 4 0 20 0
fffe6f3c 0 0 4 0 21 0
0001c74e 0 0 4 0 22 0
fffe127c 0 0 4 0 23 0
0001fd68 0 0 4 0 24 0
fffe0f2f 0 0 4 0 25 0
0001c222 0 0 4 0 26 0
fffe9397 0 0 4 0 27 0
0000ebcd 0 0 4 0 28 0
ffffc27b 0 0 4 0 29 0
ffff606d 0 0 4 0 30 0
0001ab10 0 0 4 0 31 0
fffd1cf9 0 0 4 0 32 0
000443bb 0 0 4 0 33 0
fffa37b5 0 0 4 0 34 0
00076acd 0 0 4 0 35 0
fff6daf1 0 0 4 0 36 0
000af1bc 0 0 4 0 37 0
fff331c1 0 0 4 0 38 0
000ebe98 0 0 4 0 39 0
ffef298b 0 0 4 0 40 0
001353ce 0 0 4 0 41 0
ffe8f597 0 0 4 0 42 0
00207d38 0 0 4 0 43 0
00ee5ff0 0 0 4 0 44 0
00013717 0 0 4 0 45 0
fff7991b 0 0 4 0 46 0
000a9828 0 0 4 0 47 0
fff4b200 0 0 4 0 48 0
000b4a01 0 0 4 0 49 0
fff52c8d 0 0 4 0 50 0
000a0ee0 0 0 4 0 51 0
fff6ebdc 0 0 4 0 52 0
0007f58a 0 0 4 0 53 0
fff93d95 0 0 4 0 54 0
00058833 0 0 4 0 55 0
fffbad63 0 0 4 0 56 0
00032ba1 0 0 4 0 57 0
fffde450 0 0 4 0 58 0
00012928 0 0 4 0 59 0
ffffa75c 0 0 4 0 60 0
ffffacf4 0 0 4 0 61 0
0000d913 0 0 4 0 62 0
fffec5eb 0 0 4 0 63 0
00017836 0 0 4 0 64 0
fffe6936 0 0 4 0 65 0
00019a36 0 0 4 0 66 0
fffe78c0 0 0 4 0 67 0
0001630a 0 0 4 0 68 0
fffecd34 0 0 4 0 69 0
0000fb76 0 0 4 0 70 0
ffff3e78 0 0 4 0 71 0
000088c8 0 0 4 0 72 0
ffffab9c 0 0 4 0 73 0
00002697 0 0 4 0 74 0
ffffff12 0 0 4 0 75 0
ffffe40a 0 0 4 0 76 0
00003007 0 0 4 0 77 0
ffffc41d 0 0 4 0 78 0
000040c2 0 0 4 0 79 0
ffffc062 0 0 4 0 80 0
00003b7b 0 0 4 0 81 0
ffffcd87 0 0 4 0 82 0
00002fc9 0 0 4 0 83 0
ffffe5b1 0 0 4 0 84 0
000032ad 0 0 4 0 85 0
0000536f 0 0 4 0 86 0
ffffedca 0 0 4 0 87 0
fffff840 0 0 4 0 88 0
00000000 -1 -1 -1 -1 -1 -1
00000000 -1 -1 -1 -1 -1 -1
00000000 -1 -1 -1 -1 -1 -1
00000000 -1 -1 -1 -1 -1 -1
00000000 -1 -1 -1 -1 -1 -1
00000000 -1 -1 -1 -1 -1 -1
00000000 -1 -1 -1 -1 -1 -1
00000000 -1 -1 -1 -1 -1 -1
00000000 -1 -1 -1 -1 -1 -1
00000000 -1 -1 -1 -1 -1 -1
00000000 -1 -1 -1 -1 -1 -1
00000000 -1 -1 -1 -1 -1 -1
00000000 -1 -1 -1 -1 -1 -1
00000000 -1 -1 -1 -1 -1 -1
00000000 -1 -1 -1 -1 -1 -1
00000000 -1 -1 -1 -1 -1 -1
00000000 -1 -1 -1 -1 -1 -1
00000000 -1 -1 -1 -1 -1 -1
00000000 -1 -1 -1 -1 -1 -1
00000000 -1 -1 -1 -1 -1 -1
00000000 -1 -1 -1 -1 -1 -1
00000000 -1 -1 -1 -1 -1 -1
00000000 -1 -1 -1 -1 -1 -1
00000000 -1 -1 -1 -1 -1 -1
00000000 -1 -1 -1 -1 -1 -1
00000000 -1 -1 -1 -1 -1 -1
00000000 -1 -1 -1 -1 -1 -1
00000000 -1 -1 -1 -1 -1 -1
00000000 -1 -1 -1 -1 -1 -1
00000000 -1 -1 -1 -1 -1 -1
00000000 -1 -1 -1 -1 -1 -1
00000000 -1 -1 -1 -1 -1 -1
00000000 -1 -1 -1 -1 -1 -1
00000000 -1 -1 -1 -1 -1 -1
00000000 -1 -1 -1 -1 -1 -1
00000000 -1 -1 -1 -1 -1 -1
00000000 -1 -1 -1 -1 -1 -1
00000000 -1 -1 -1 -1 -1 -1
00000000 -1 -1 -1 -1 -1 -1
fffff1e9 0 0 5 0 0 0
fffffcae 0 0 5 0 1 0
00006721 0 0 5 0 2 0
00000a2c 0 0 5 0 3 0
0000001b 0 0 5 0 4 0
00001824 0 0 5 0 5 0
ffffddc6 0 0 5 0 6 0
00003321 0 0 5 0 7 0
ffffbd5c 0 0 5 0 8 0
00005236 0 0 5 0 9 0
ffffa103 0 0 5 0 10 0
0000674b 0 0 5 0 11 0
ffff9711 0 0 5 0 12 0
000061dd 0 0 5 0 13 0
ffffafa5 0 0 5 0 14 0
000032fc 0 0 5 0 15 0
fffff6f0 0 0 5 0 16 0
ffffd283 0 0 5 0 17 0
00006fb3 0 0 5 0 18 0
ffff4440 0 0 5 0 19 0
00010eb4 0 0 5 0 20 0
fffe9b6c 0 0 5 0 21 0
0001b859 0 0 5 0 22 0
fffdfbd0 0 0 5 0 23 0
000241ab 0 0 5 0 24 0
fffd9658 0 0 5 0 25 0
000274f4 0 0 5 0 26 0
fffda38d 0 0 5 0 27 0
00021988 0 0 5 0 28 0
fffe59e7 0 0 5 0 29 0
0000fd24 0 0 5 0 30 0
ffffe545 0 0 5 0 31 0
fffefbf3 0 0 5 0 32 0
000260d7 0 0 5 0 33 0
fffc0343 0 0 5 0 34 0
0005d8d4 0 0 5 0 35 0
fff8086b 0 0 5 0 36 0
000a5f7e 0 0 5 0 37 0
fff2dfd8 0 0 5 0 38 0
00105d66 0 0 5 0 39 0
ffeb9470 0 0 5 0 40 0
001a2716 0 0 5 0 41 0
ffdb9399 0 0 5 0 42 0
0044650e 0 0 5 0 43 0
00e3bd6e 0 0 5 0 44 0
ffe86622 0 0 5 0 45 0
00059a8a 0 0 5 0 46 0
00013422 0 0 5 0 47 0
fffb5913 0 0 5 0 48 0
00068a81 0 0 5 0 49 0
fff87b2e 0 0 5 0 50 0
0007e37e 0 0 5 0 51 0
fff82d55 0 0 5 0 52 0
00076fc5 0 0 5 0 53 0
fff92f0a 0 0 5 0 54 0
0006086f 0 0 5 0 55 0
fffada40 0 0 5 0 56 0
0004365d 0 0 5 0 57 0
fffcb9e5 0 0 5 0 58 0
00025ecc 0 0 5 0 59 0
fffe7780 0 0 5 0 60 0
0000c984 0 0 5 0 61 0
ffffd9e9 0 0 5 0 62 0
ffffa0d6 0 0 5 0 63 0
0000c561 0 0 5 0 64 0
fffef2d1 0 0 5 0 65 0
000138b2 0 0 5 0 66 0
fffeb527 0 0 5 0 67 0
0001475f 0 0 5 0 68 0
fffecd72 0 0 5 0 69 0
000110d6 0 0 5 0 70 0
ffff195b 0 0 5 0 71 0
0000b7fe 0 0 5 0 72 0
ffff7767 0 0 5 0 73 0
00005b6b 0 0 5 0 74 0
ffffcd20 0 0 5 0 75 0
00001086 0 0 5 0 76 0
00000aac 0 0 5 0 77 0
ffffe189 0 0 5 0 78 0
00002b5e 0 0 5 0 79 0
ffffce4a 0 0 5 0 80 0
00003454 0 0 5 0 81 0
ffffcf3d 0 0 5 0 82 0
000033be 0 0 5 0 83 0
ffffde50 0 0 5 0 84 0
000045b2 0 0 5 0 85 0
00004511 0 0 5 0 86 0
ffffea4d 0 0 5 0 87 0
fffffad6 0 0 5 0 88 0
00000000 -1 -1 -1 -1 -1 -1
00000000 -1 -1 -1 -1 -1 -1
00000000 -1 -1 -1 -1 -1 -1
00000000 -1 -1 -1 -1 -1 -1
00000000 -1 -1 -1 -1 -1 -1
00000000 -1 -1 -1 -1 -1 -1
00000000 -1 -1 -1 -1 -1 -1
00000000 -1 -1 -1 -1 -1 -1
00000000 -1 -1 -1 -1 -1 -1
00000000 -1 -1 -1 -1 -1 -1
00000000 -1 -1 -1 -1 -1 -1
00000000 -1 -1 -1 -1 -1 -1
00000000 -1 -1 -1 -1 -1 -1
00000000 -1 -1 -1 -1 -1 -1
00000000 -1 -1 -1 -1 -1 -1
00000000 -1 -1 -1 -1 -1 -1
00000000 -1 -1 -1 -1 -1 -1
00000000 -1 -1 -1 -1 -1 -1
00000000 -1 -1 -1 -1 -1 -1
00000000 -1 -1 -1 -1 -1 -1
00000000 -1 -1 -1 -1 -1 -1
00000000 -1 -1 -1 -1 -1 -1
00000000 -1 -1 -1 -1 -1 -1
00000000 -1 -1 -1 -1 -1 -1
00000000 -1 -1 -1 -1 -1 -1
00000000 -1 -1 -1 -1 -1 -1
00000000 -1 -1 -1 -1 -1 -1
00000000 -1 -1 -1 -1 -1 -1
00000000 -1 -1 -1 -1 -1 -1
00000000 -1 -1 -1 -1 -1 -1
00000000 -1 -1 -1 -1 -1 -1
00000000 -1 -1 -1 -1 -1 -1
00000000 -1 -1 -1 -1 -1 -1
00000000 -1 -1 -1 -1 -1 -1
00000000 -1 -1 -1 -1 -1 -1
00000000 -1 -1 -1 -1 -1 -1
00000000 -1 -1 -1 -1 -1 -1
00000000 -1 -1 -1 -1 -1 -1
00000000 -1 -1 -1 -1 -1 -1
ffffeea1 0 0 6 0 0 0
0000081b 0 0 6 0 1 0
00006a83 0 0 6 0 2 0
fffff824 0 0 6 0 3 0
00000fc8 0 0 6 0 4 0
00000718 0 0 6 0 5 0
ffffedfd 0 0 6 0 6 0
00002427 0 0 6 0 7 0
ffffc946 0 0 6 0 8 0
00004b47 0 0 6 0 9 0
ffffa0a5 0 0 6 0 10 0
0000714c 0 0 6 0 11 0
ffff8136 0 0 6 0 12 0
00008565 0 0 6 0 13 0
ffff7d3c 0 0 6 0 14 0
0000749e 0 0 6 0 15 0
ffffa6d4 0 0 6 0 16 0
00002f12 0 0 6 0 17 0
00000a1d 0 0 6 0 18 0
ffffadf6 0 0 6 0 19 0
0000a738 0 0 6 0 20 0
fffef8f8 0 0 6 0 21 0
00016d97 0 0 6 0 22 0
fffe2a1f 0 0 6 0 23 0
000239ea 0 0 6 0 24 0
fffd6d7c 0 0 6 0 25 0
0002d7d8 0 0 6 0 26 0
fffcfe76 0 0 6 0 27 0
00030718 0 0 6 0 28 0
fffd2029 0 0 6 0 29 0
00028387 0 0 6 0 30 0
fffe15a9 0 0 6 0 31 0
00010ccb 0 0 6 0 32 0
00001bfc 0 0 6 0 33 0
fffe68dc 0 0 6 0 34 0
00036ce2 0 0 6 0 35 0
fffa5786 0 0 6 0 36 0
00085c40 0 0 6 0 37 0
fff45663 0 0 6 0 38 0
000fd356 0 0 6 0 39 0
ffea92b2 0 0 6 0 40 0
001df630 0 0 6 0 41 0
ffd16e20 0 0 6 0 42 0
006a9074 0 0 6 0 43 0
00cf5354 0 0 6 0 44 0
ffd72f0f 0 0 6 0 45 0
00115dc4 0 0 6 0 46 0
fff86319 0 0 6 0 47 0
00023301 0 0 6 0 48 0
00012e40 0 0 6 0 49 0
fffca06a 0 0 6 0 50 0
0004c522 0 0 6 0 51 0
fffa6a40 0 0 6 0 52 0
0005f435 0 0 6 0 53 0
fffa0681 0 0 6 0 54 0
0005b988 0 0 6 0 55 0
fffababd 0 0 6 0 56 0
0004ab8c 0 0 6 0 57 0
fffc0622 0 0 6 0 58 0
00033c08 0 0 6 0 59 0
fffd839f 0 0 6 0 60 0
0001c3c7 0 0 6 0 61 0
fffee6c5 0 0 6 0 62 0
00008230 0 0 6 0 63 0
fffffda8 0 0 6 0 64 0
ffff9bcf 0 0 6 0 65 0
0000b10a 0 0 6 0 66 0
ffff1b0f 0 0 6 0 67 0
000101c6 0 0 6 0 68 0
fffef5a9 0 0 6 0 69 0
00010207 0 0 6 0 70 0
ffff1364 0 0 6 0 71 0
0000cdcf 0 0 6 0 72 0
ffff569c 0 0 6 0 73 0
000082a4 0 0 6 0 74 0
ffffa37a 0 0 6 0 75 0
0000394b 0 0 6 0 76 0
ffffe550 0 0 6 0 77 0
000001c4 0 0 6 0 78 0
00001141 0 0 6 0 79 0
ffffe20a 0 0 6 0 80 0
000026df 0 0 6 0 81 0
ffffd747 0 0 6 0 82 0
000031cc 0 0 6 0 83 0
ffffdc59 0 0 6 0 84 0
000055c9 0 0 6 0 85 0
0000353e 0 0 6 0 86 0
ffffe918 0 0 6 0 87 0
fffffce0 0 0 6 0 88 0
00000000 -1 -1 -1 -1 -1 -1
00000000 -1 -1 -1 -1 -1 -1
00000000 -1 -1 -1 -1 -1 -1
00000000 -1 -1 -1 -1 -1 -1
00000000 -1 -1 -1 -1 -1 -1
00000000 -1 -1 -1 -1 -1 -1
00000000 -1 -1 -1 -1 -1 -1
00000000 -1 -1 -1 -1 -1 -1
00000000 -1 -1 -1 -1 -1 -1
00000000 -1 -1 -1 -1 -1 -1
00000000 -1 -1 -1 -1 -1 -1
00000000 -1 -1 -1 -1 -1 -1
00000000 -1 -1 -1 -1 -1 -1
00000000 -1 -1 -1 -1 -1 -1
00000000 -1 -1 -1 -1 -1 -1
00000000 -1 -1 -1 -1 -1 -1
00000000 -1 -1 -1 -1 -1 -1
00000000 -1 -1 -1 -1 -1 -1
00000000 -1 -1 -1 -1 -1 -1
00000000 -1 -1 -1 -1 -1 -1
00000000 -1 -1 -1 -1 -1 -1
00000000 -1 -1 -1 -1 -1 -1
00000000 -1 -1 -1 -1 -1 -1
00000000 -1 -1 -1 -1 -1 -1
00000000 -1 -1 -1 -1 -1 -1
00000000 -1 -1 -1 -1 -1 -1
00000000 -1 -1 -1 -1 -1 -1
00000000 -1 -1 -1 -1 -1 -1
00000000 -1 -1 -1 -1 -1 -1
00000000 -1 -1 -1 -1 -1 -1
00000000 -1 -1 -1 -1 -1 -1
00000000 -1 -1 -1 -1 -1 -1
00000000 -1 -1 -1 -1 -1 -1
00000000 -1 -1 -1 -1 -1 -1
00000000 -1 -1 -1 -1 -1 -1
00000000 -1 -1 -1 -1 -1 -1
00000000 -1 -1 -1 -1 -1 -1
00000000 -1 -1 -1 -1 -1 -1
00000000 -1 -1 -1 -1 -1 -1
ffffebc1 0 0 7 0 0 0
000015cc 0 0 7 0 1 0
000068c2 0 0 7 0 2 0
ffffe9bd 0 0 7 0 3 0
00001e7f 0 0 7 0 4 0
fffff524 0 0 7 0 5 0
00000136 0 0 7 0 6 0
00000fef 0 0 7 0 7 0
ffffdce5 0 0 7 0 8 0
00003a1c 0 0 7 0 9 0
ffffacf0 0 0 7 0 10 0
00006c97 0 0 7 0 11 0
ffff7b79 0 0 7 0 12 0
0000985e 0 0 7 0 13 0
ffff5a90 0 0 7 0 14 0
0000a8da 0 0 7 0 15 0
ffff6008 0 0 7 0 16 0
0000884c 0 0 7 0 17 0
ffff9ff7 0 0 7 0 18 0
000025fa 0 0 7 0 19 0
00002616 0 0 7 0 20 0
ffff7cbc 0 0 7 0 21 0
0000ef5a 0 0 7 0 22 0
fffe992a 0 0 7 0 23 0
0001e502 0 0 7 0 24 0
fffd9c68 0 0 7 0 25 0
0002db2c 0 0 7 0 26 0
fffcbcc3 0 0 7 0 27 0
00039289 0 0 7 0 28 0
fffc410c 0 0 7 0 29 0
0003be17 0 0 7 0 30 0
fffc7abe 0 0 7 0 31 0
0003095f 0 0 7 0 32 0
fffdc0d1 0 0 7 0 33 0
00011a65 0 0 7 0 34 0
0000735b 0 0 7 0 35 0
fffd8325 0 0 7 0 36 0
00051e40 0 0 7 0 37 0
fff778b0 0 0 7 0 38 0
000d134a 0 0 7 0 39 0
ffec76f7 0 0 7 0 40 0
001df0df 0 0 7 0 41 0
ffcc61ac 0 0 7 0 42 0
009049f5 0 0 7 0 43 0
00b2c280 0 0 7 0 44 0
ffcdf636 0 0 7 0 45 0
0019b390 0 0 7 0 46 0
fff13651 0 0 7 0 47 0
00085bc9 0 0 7 0 48 0
fffbeec2 0 0 7 0 49 0
000108b9 0 0 7 0 50 0
0001259b 0 0 7 0 51 0
fffd4e91 0 0 7 0 52 0
0003bcdc 0 0 7 0 53 0
fffba06a 0 0 7 0 54 0
0004ac20 0 0 7 0 55 0
fffb4dbf 0 0 7 0 56 0
00048005 0 0 7 0 57 0
fffbdd5c 0 0 7 0 58 0
0003a634 0 0 7 0 59 0
fffcea25 0 0 7 0 60 0
00027bc9 0 0 7 0 61 0
fffe1f44 0 0 7 0 62 0
00014c34 0 0 7 0 63 0
ffff3bd5 0 0 7 0 64 0
00004d26 0 0 7 0 65 0
0000161a 0 0 7 0 66 0
ffff9beb 0 0 7 0 67 0
00009c96 0 0 7 0 68 0
ffff3f61 0 0 7 0 69 0
0000d217 0 0 7 0 70 0
ffff2c5d 0 0 7 0 71 0
0000c838 0 0 7 0 72 0
ffff4cd6 0 0 7 0 73 0
000097a7 0 0 7 0 74 0
ffff8734 0 0 7 0 75 0
0000593f 0 0 7 0 76 0
ffffc4bc 0 0 7 0 77 0
00002096 0 0 7 0 78 0
fffff5eb 0 0 7 0 79 0
fffff8ec 0 0 7 0 80 0
00001507 0 0 7 0 81 0
ffffe47f 0 0 7 0 82 0
00002a5d 0 0 7 0 83 0
ffffe038 0 0 7 0 84 0
000061bc 0 0 7 0 85 0
00002522 0 0 7 0 86 0
ffffe9bf 0 0 7 0 87 0
fffffdea 0 0 7 0 88 0
00000000 -1 -1 -1 -1 -1 -1
00000000 -1 -1 -1 -1 -1 -1
00000000 -1 -1 -1 -1 -1 -1
00000000 -1 -1 -1 -1 -1 -1
00000000 -1 -1 -1 -1 -1 -1
00000000 -1 -1 -1 -1 -1 -1
00000000 -1 -1 -1 -1 -1 -1
00000000 -1 -1 -1 -1 -1 -1
00000000 -1 -1 -1 -1 -1 -1
00000000 -1 -1 -1 -1 -1 -1
00000000 -1 -1 -1 -1 -1 -1
00000000 -1 -1 -1 -1 -1 -1
00000000 -1 -1 -1 -1 -1 -1
00000000 -1 -1 -1 -1 -1 -1
00000000 -1 -1 -1 -1 -1 -1
00000000 -1 -1 -1 -1 -1 -1
00000000 -1 -1 -1 -1 -1 -1
00000000 -1 -1 -1 -1 -1 -1
00000000 -1 -1 -1 -1 -1 -1
00000000 -1 -1 -1 -1 -1 -1
00000000 -1 -1 -1 -1 -1 -1
00000000 -1 -1 -1 -1 -1 -1
00000000 -1 -1 -1 -1 -1 -1
00000000 -1 -1 -1 -1 -1 -1
00000000 -1 -1 -1 -1 -1 -1
00000000 -1 -1 -1 -1 -1 -1
00000000 -1 -1 -1 -1 -1 -1
00000000 -1 -1 -1 -1 -1 -1
00000000 -1 -1 -1 -1 -1 -1
00000000 -1 -1 -1 -1 -1 -1
00000000 -1 -1 -1 -1 -1 -1
00000000 -1 -1 -1 -1 -1 -1
00000000 -1 -1 -1 -1 -1 -1
00000000 -1 -1 -1 -1 -1 -1
00000000 -1 -1 -1 -1 -1 -1
00000000 -1 -1 -1 -1 -1 -1
00000000 -1 -1 -1 -1 -1 -1
00000000 -1 -1 -1 -1 -1 -1
00000000 -1 -1 -1 -1 -1 -1
